…
### variáveis auxiliares

``` r
DBA <- DBA %>% 
  mutate(
    C = as_factor(ifelse(tipo == "TR", 0, trat)),
    X = as_factor(ifelse(tipo == "teste", 0, trat))
  )
```

``` r
DBA %>% tibble()
#> # A tibble: 490 x 6
#>    bloco tipo  trat   prod C     X    
#>    <fct> <chr> <fct> <dbl> <fct> <fct>
#>  1 1     teste 451    82.8 451   0    
#>  2 1     teste 452    82.8 452   0    
#>  3 1     teste 453    53.8 453   0    
#>  4 1     teste 454    51.6 454   0    
#>  5 1     TR    1      90.6 0     1    
#>  6 1     TR    2      77.4 0     2    
#>  7 1     TR    3     105.  0     3    
#>  8 1     TR    4      85.4 0     4    
#>  9 1     TR    5      81.6 0     5    
#> 10 1     TR    6      42.4 0     6    
#> # ... with 480 more rows
```
…
## Help Julio Bueno - SEP of BLUPs via `lme4`

``` r
blups <- ranef(lmer_dba, condVar = TRUE, drop=TRUE)
blups_trat <- blups$trat
blups_PEV <- attr(blups_trat,"postVar")
blups_SEP <- sqrt(blups_PEV)
t_blups <- blups_trat/blups_SEP # estatística t
tibble(blups_trat,blups_SEP,t_blups)
#> # A tibble: 454 x 3
#>    blups_trat blups_SEP t_blups
#>         <dbl>     <dbl>   <dbl>
#>  1     10.4        6.94  1.50  
#>  2      1.55       6.94  0.224 
#>  3     19.7        6.94  2.84  
#>  4      6.90       6.94  0.995 
#>  5      4.36       6.94  0.628 
#>  6    -21.8        6.94 -3.15  
#>  7     -1.25       6.94 -0.181 
#>  8      0.618      6.94  0.0891
#>  9     15.7        6.94  2.27  
#> 10     19.9        6.94  2.86  
#> # ... with 444 more rows
```
…
